fulladder/sim/top.vcd
$date
	Tue Oct 10 17:30:10 2023
$end
$version
	Icarus Verilog
$end
$timescale
	1s
$end
$scope module testbech $end
$var wire 5 ! outs [4:0] $end
$var reg 9 " inputs [8:0] $end
$var integer 32 # i [31:0] $end
$scope module dut $end
$var wire 1 $ ina_0 $end
$var wire 1 % ina_1 $end
$var wire 1 & ina_2 $end
$var wire 1 ' ina_3 $end
$var wire 1 ( inb_0 $end
$var wire 1 ) inb_1 $end
$var wire 1 * inb_2 $end
$var wire 1 + inb_3 $end
$var wire 1 , inci_0 $end
$var wire 1 - xor_to_inb_0 $end
$var wire 1 . xor_to_inb_1 $end
$var wire 1 / xor_to_inb_2 $end
$var wire 1 0 xor_to_inb_3 $end
$var wire 1 1 outs_4 $end
$var wire 1 2 outs_3 $end
$var wire 1 3 outs_2 $end
$var wire 1 4 outs_1 $end
$var wire 1 5 outs_0 $end
$scope module Sumador_4bits1 $end
$var wire 1 $ ina0 $end
$var wire 1 % ina1 $end
$var wire 1 & ina2 $end
$var wire 1 ' ina3 $end
$var wire 1 - inb0 $end
$var wire 1 . inb1 $end
$var wire 1 / inb2 $end
$var wire 1 0 inb3 $end
$var wire 1 , inci0 $end
$var wire 1 1 outs4 $end
$var wire 1 2 outs3 $end
$var wire 1 3 outs2 $end
$var wire 1 4 outs1 $end
$var wire 1 5 outs0 $end
$var wire 1 6 co2_to_ci3 $end
$var wire 1 7 co1_to_ci2 $end
$var wire 1 8 co0_to_ci1 $end
$scope module fulladder1 $end
$var wire 1 $ in_a $end
$var wire 1 - in_b $end
$var wire 1 , in_ci $end
$var wire 1 8 out_co $end
$var wire 1 9 s_s1_to_b_s2 $end
$var wire 1 5 out_s $end
$var wire 1 : co_s2_to_or $end
$var wire 1 ; co_s1_to_or $end
$scope module halfadder1 $end
$var wire 1 $ a $end
$var wire 1 - b $end
$var wire 1 ; co $end
$var wire 1 9 s $end
$upscope $end
$scope module halfadder2 $end
$var wire 1 , a $end
$var wire 1 9 b $end
$var wire 1 : co $end
$var wire 1 5 s $end
$upscope $end
$upscope $end
$scope module fulladder2 $end
$var wire 1 % in_a $end
$var wire 1 . in_b $end
$var wire 1 8 in_ci $end
$var wire 1 7 out_co $end
$var wire 1 < s_s1_to_b_s2 $end
$var wire 1 4 out_s $end
$var wire 1 = co_s2_to_or $end
$var wire 1 > co_s1_to_or $end
$scope module halfadder1 $end
$var wire 1 % a $end
$var wire 1 . b $end
$var wire 1 > co $end
$var wire 1 < s $end
$upscope $end
$scope module halfadder2 $end
$var wire 1 8 a $end
$var wire 1 < b $end
$var wire 1 = co $end
$var wire 1 4 s $end
$upscope $end
$upscope $end
$scope module fulladder3 $end
$var wire 1 & in_a $end
$var wire 1 / in_b $end
$var wire 1 7 in_ci $end
$var wire 1 6 out_co $end
$var wire 1 ? s_s1_to_b_s2 $end
$var wire 1 3 out_s $end
$var wire 1 @ co_s2_to_or $end
$var wire 1 A co_s1_to_or $end
$scope module halfadder1 $end
$var wire 1 & a $end
$var wire 1 / b $end
$var wire 1 A co $end
$var wire 1 ? s $end
$upscope $end
$scope module halfadder2 $end
$var wire 1 7 a $end
$var wire 1 ? b $end
$var wire 1 @ co $end
$var wire 1 3 s $end
$upscope $end
$upscope $end
$scope module fulladder4 $end
$var wire 1 ' in_a $end
$var wire 1 0 in_b $end
$var wire 1 6 in_ci $end
$var wire 1 1 out_co $end
$var wire 1 B s_s1_to_b_s2 $end
$var wire 1 2 out_s $end
$var wire 1 C co_s2_to_or $end
$var wire 1 D co_s1_to_or $end
$scope module halfadder1 $end
$var wire 1 ' a $end
$var wire 1 0 b $end
$var wire 1 D co $end
$var wire 1 B s $end
$upscope $end
$scope module halfadder2 $end
$var wire 1 6 a $end
$var wire 1 B b $end
$var wire 1 C co $end
$var wire 1 2 s $end
$upscope $end
$upscope $end
$upscope $end
$upscope $end
$upscope $end
$enddefinitions $end
$comment Show the parameter values. $end
$dumpall
$end
#0
$dumpvars
0D
0C
0B
0A
0@
0?
0>
0=
0<
0;
0:
09
08
07
06
05
04
03
02
01
00
0/
0.
0-
0,
0+
0*
0)
0(
0'
0&
0%
0$
b0 #
b0 "
b0 !
$end
#1
11
1C
16
1@
17
1=
18
02
03
04
1:
1B
1?
1<
19
10
1/
1.
1-
b10000 !
05
1,
b1 "
b1 #
#2
01
06
07
02
0C
03
0@
0=
0B
0?
0<
08
00
0/
0.
0-
b1 !
15
0:
1$
0,
b10 "
b10 #
#3
11
1C
16
1@
17
02
03
1=
1B
1?
1<
09
1;
18
10
1/
1.
1-
b10001 !
15
0:
1,
b11 "
b11 #
#4
07
01
06
14
0=
02
0C
03
0@
08
0B
0?
0;
00
0/
0.
0-
b10 !
05
1%
0$
0,
b100 "
b100 #
#5
11
1C
16
18
02
1@
14
17
1:
1B
1?
0<
1>
19
10
1/
1.
1-
b10010 !
05
1,
b101 "
b101 #
#6
01
06
02
0C
0@
07
0B
0?
1<
0>
08
00
0/
0.
0-
b11 !
15
0:
1$
0,
b110 "
b110 #
#7
11
1C
16
02
1@
17
1B
1?
0<
1>
09
1;
18
10
1/
1.
1-
b10011 !
15
0:
1,
b111 "
b111 #
#8
06
01
13
0@
04
02
0C
07
08
0B
0>
0;
00
0/
0.
0-
b100 !
05
1&
0%
0$
0,
b1000 "
b1000 #
#9
17
1=
11
18
1C
13
16
04
1:
1B
0?
1A
1<
19
10
1/
1.
1-
b10100 !
05
1,
b1001 "
b1001 #
#10
02
01
07
0C
13
0@
06
0=
0B
1?
0A
0<
08
00
0/
0.
0-
b101 !
15
0:
1$
0,
b1010 "
b1010 #
#11
11
17
1C
13
16
1=
1B
0?
1A
1<
09
1;
18
10
1/
1.
1-
b10101 !
15
0:
1,
b1011 "
b1011 #
#12
02
07
01
14
0=
0C
13
0@
06
08
0B
1?
0A
0;
00
0/
0.
0-
b110 !
05
1%
0$
0,
b1100 "
b1100 #
#13
11
18
1C
16
14
17
1:
1B
0?
1A
0<
1>
19
10
1/
1.
1-
b10110 !
05
1,
b1101 "
b1101 #
#14
01
0C
06
07
0B
1?
0A
1<
0>
08
00
0/
0.
0-
b111 !
15
0:
1$
0,
b1110 "
b1110 #
#15
11
1C
16
17
1B
0?
1A
0<
1>
09
1;
18
10
1/
1.
1-
b10111 !
15
0:
1,
b1111 "
b1111 #
#16
01
12
0C
03
04
06
07
08
0A
0>
0;
00
0/
0.
0-
b1000 !
05
1'
0&
0%
0$
0,
b10000 "
b10000 #
#17
16
1@
17
1=
18
12
11
03
04
1:
0B
1D
1?
1<
19
10
1/
1.
1-
b11000 !
05
1,
b10001 "
b10001 #
#18
06
07
12
0C
01
03
0@
0=
1B
0D
0?
0<
08
00
0/
0.
0-
b1001 !
15
0:
1$
0,
b10010 "
b10010 #
#19
16
1@
17
12
11
03
1=
0B
1D
1?
1<
09
1;
18
10
1/
1.
1-
b11001 !
15
0:
1,
b10011 "
b10011 #
#20
07
06
14
0=
12
0C
01
03
0@
08
1B
0D
0?
0;
00
0/
0.
0-
b1010 !
05
1%
0$
0,
b10100 "
b10100 #
#21
16
18
12
11
1@
14
17
1:
0B
1D
1?
0<
1>
19
10
1/
1.
1-
b11010 !
05
1,
b10101 "
b10101 #
#22
06
12
0C
01
0@
07
1B
0D
0?
1<
0>
08
00
0/
0.
0-
b1011 !
15
0:
1$
0,
b10110 "
b10110 #
#23
16
12
11
1@
17
0B
1D
1?
0<
1>
09
1;
18
10
1/
1.
1-
b11011 !
15
0:
1,
b10111 "
b10111 #
#24
06
13
0@
04
12
0C
01
07
08
1B
0D
0>
0;
00
0/
0.
0-
b1100 !
05
1&
0%
0$
0,
b11000 "
b11000 #
#25
17
1=
18
11
13
16
04
1:
0B
1D
0?
1A
1<
19
10
1/
1.
1-
b11100 !
05
1,
b11001 "
b11001 #
#26
12
0C
07
01
13
0@
06
0=
1B
0D
1?
0A
0<
08
00
0/
0.
0-
b1101 !
15
0:
1$
0,
b11010 "
b11010 #
#27
17
11
13
16
1=
0B
1D
0?
1A
1<
09
1;
18
10
1/
1.
1-
b11101 !
15
0:
1,
b11011 "
b11011 #
#28
12
0C
07
14
0=
01
13
0@
06
08
1B
0D
1?
0A
0;
00
0/
0.
0-
b1110 !
05
1%
0$
0,
b11100 "
b11100 #
#29
18
11
16
14
17
1:
0B
1D
0?
1A
0<
1>
19
10
1/
1.
1-
b11110 !
05
1,
b11101 "
b11101 #
#30
01
06
07
1B
0D
1?
0A
1<
0>
08
00
0/
0.
0-
b1111 !
15
0:
1$
0,
b11110 "
b11110 #
#31
11
16
17
0B
1D
0?
1A
0<
1>
09
1;
18
10
1/
1.
1-
b11111 !
15
0:
1,
b11111 "
b11111 #
#32
02
03
04
01
06
07
08
0D
0A
0>
19
0;
00
0/
0.
b1 !
15
1(
0'
0&
0%
0$
0,
b100000 "
b100000 #
#33
01
0C
06
14
0@
07
12
13
0=
1B
1?
1<
09
08
10
1/
1.
0-
b1111 !
15
0:
1,
b100001 "
b100001 #
#34
02
03
18
0B
0?
0<
1;
00
0/
0.
1-
b10 !
05
1$
0,
b100010 "
b100010 #
#35
11
1C
16
1@
17
04
1=
02
03
1:
18
1B
1?
1<
19
0;
10
1/
1.
0-
b10000 !
05
1,
b100011 "
b100011 #
#36
01
06
07
02
0C
03
0@
14
0=
0B
0?
08
00
0/
0.
1-
b11 !
15
0:
1%
0$
0,
b100100 "
b100100 #
#37
11
1C
04
16
02
1@
17
1B
1?
0<
1>
09
08
10
1/
1.
0-
b10001 !
15
0:
1,
b100101 "
b100101 #
#38
13
01
06
02
0C
0@
1=
17
18
0B
0?
1<
0>
1;
00
0/
0.
1-
b100 !
05
1$
0,
b100110 "
b100110 #
#39
11
1C
14
16
02
03
1@
0=
1:
18
1B
1?
0<
1>
19
0;
10
1/
1.
0-
b10010 !
05
1,
b100111 "
b100111 #
#40
06
01
13
0@
02
0C
04
07
0B
08
0>
00
0/
0.
1-
b101 !
15
0:
1&
0%
0$
0,
b101000 "
b101000 #
#41
14
11
07
1C
03
16
0=
1B
0?
1A
1<
09
08
10
1/
1.
0-
b10011 !
15
0:
1,
b101001 "
b101001 #
#42
01
0C
13
06
18
0B
1?
0A
0<
1;
00
0/
0.
1-
b110 !
05
1$
0,
b101010 "
b101010 #
#43
17
04
1=
11
1C
13
16
1:
18
1B
0?
1A
1<
19
0;
10
1/
1.
0-
b10100 !
05
1,
b101011 "
b101011 #
#44
02
01
07
0C
13
0@
06
14
0=
0B
1?
0A
08
00
0/
0.
1-
b111 !
15
0:
1%
0$
0,
b101100 "
b101100 #
#45
04
11
1C
16
17
1B
0?
1A
0<
1>
09
08
10
1/
1.
0-
b10101 !
15
0:
1,
b101101 "
b101101 #
#46
12
03
1@
01
0C
16
1=
17
18
0B
1?
0A
1<
0>
1;
00
0/
0.
1-
b1000 !
05
1$
0,
b101110 "
b101110 #
#47
14
11
02
1C
13
0@
0=
1:
18
1B
0?
1A
0<
1>
19
0;
10
1/
1.
0-
b10110 !
05
1,
b101111 "
b101111 #
#48
01
12
0C
03
04
06
07
08
0A
0>
00
0/
0.
1-
b1001 !
15
0:
1'
0&
0%
0$
0,
b110000 "
b110000 #
#49
06
14
0@
07
02
11
13
0=
0B
1D
1?
1<
09
08
10
1/
1.
0-
b10111 !
15
0:
1,
b110001 "
b110001 #
#50
12
01
03
18
1B
0D
0?
0<
1;
00
0/
0.
1-
b1010 !
05
1$
0,
b110010 "
b110010 #
#51
16
1@
17
04
1=
12
11
03
1:
18
0B
1D
1?
1<
19
0;
10
1/
1.
0-
b11000 !
05
1,
b110011 "
b110011 #
#52
06
07
12
0C
01
03
0@
14
0=
1B
0D
0?
08
00
0/
0.
1-
b1011 !
15
0:
1%
0$
0,
b110100 "
b110100 #
#53
04
16
12
11
1@
17
0B
1D
1?
0<
1>
09
08
10
1/
1.
0-
b11001 !
15
0:
1,
b110101 "
b110101 #
#54
13
06
12
0C
01
0@
1=
17
18
1B
0D
0?
1<
0>
1;
00
0/
0.
1-
b1100 !
05
1$
0,
b110110 "
b110110 #
#55
14
16
12
11
03
1@
0=
1:
18
0B
1D
1?
0<
1>
19
0;
10
1/
1.
0-
b11010 !
05
1,
b110111 "
b110111 #
#56
06
13
0@
12
0C
01
04
07
1B
0D
08
0>
00
0/
0.
1-
b1101 !
15
0:
1&
0%
0$
0,
b111000 "
b111000 #
#57
14
07
11
03
16
0=
0B
1D
0?
1A
1<
09
08
10
1/
1.
0-
b11011 !
15
0:
1,
b111001 "
b111001 #
#58
01
13
06
18
1B
0D
1?
0A
0<
1;
00
0/
0.
1-
b1110 !
05
1$
0,
b111010 "
b111010 #
#59
17
04
1=
11
13
16
1:
18
0B
1D
0?
1A
1<
19
0;
10
1/
1.
0-
b11100 !
05
1,
b111011 "
b111011 #
#60
12
0C
07
01
13
0@
06
14
0=
1B
0D
1?
0A
08
00
0/
0.
1-
b1111 !
15
0:
1%
0$
0,
b111100 "
b111100 #
#61
04
11
16
17
0B
1D
0?
1A
0<
1>
09
08
10
1/
1.
0-
b11101 !
15
0:
1,
b111101 "
b111101 #
#62
02
1C
03
1@
11
16
1=
17
18
1B
0D
1?
0A
1<
0>
1;
00
0/
0.
1-
b10000 !
05
1$
0,
b111110 "
b111110 #
#63
14
12
0C
13
0@
0=
1:
18
0B
1D
0?
1A
0<
1>
19
0;
10
1/
1.
0-
b11110 !
05
1,
b111111 "
b111111 #
#64
02
03
01
06
07
08
0D
0A
1<
0>
09
00
0/
b10 !
05
0:
1)
0(
0'
0&
0%
0$
0,
b1000000 "
b1000000 #
#65
18
12
13
14
1:
1B
1?
0<
19
10
1/
0.
1-
b1110 !
05
1,
b1000001 "
b1000001 #
#66
02
03
0B
0?
1<
08
00
0/
1.
0-
b11 !
15
0:
1$
0,
b1000010 "
b1000010 #
#67
12
13
1B
1?
0<
09
1;
18
10
1/
0.
1-
b1111 !
15
0:
1,
b1000011 "
b1000011 #
#68
04
02
17
08
0B
0?
1>
0;
00
0/
1.
0-
b100 !
05
1%
0$
0,
b1000100 "
b1000100 #
#69
11
1C
16
03
1@
1=
18
02
04
17
1:
1B
1?
1<
0>
19
10
1/
0.
1-
b10000 !
05
1,
b1000101 "
b1000101 #
#70
01
06
02
0C
13
0@
0=
0B
0?
0<
1>
08
00
0/
1.
0-
b101 !
15
0:
1$
0,
b1000110 "
b1000110 #
#71
11
1C
16
02
03
1@
1=
1B
1?
1<
0>
09
1;
18
10
1/
0.
1-
b10001 !
15
0:
1,
b1000111 "
b1000111 #
#72
06
13
0@
07
01
14
0=
02
0C
08
0B
0;
00
0/
1.
0-
b110 !
05
1&
0%
0$
0,
b1001000 "
b1001000 #
#73
11
18
1C
03
16
14
1:
1B
0?
1A
0<
19
10
1/
0.
1-
b10010 !
05
1,
b1001001 "
b1001001 #
#74
01
0C
13
06
0B
1?
0A
1<
08
00
0/
1.
0-
b111 !
15
0:
1$
0,
b1001010 "
b1001010 #
#75
11
1C
03
16
1B
0?
1A
0<
09
1;
18
10
1/
0.
1-
b10011 !
15
0:
1,
b1001011 "
b1001011 #
#76
12
01
04
0C
1@
16
17
08
0B
1?
0A
1>
0;
00
0/
1.
0-
b1000 !
05
1%
0$
0,
b1001100 "
b1001100 #
#77
13
1=
11
18
02
1C
0@
04
17
1:
1B
0?
1A
1<
0>
19
10
1/
0.
1-
b10100 !
05
1,
b1001101 "
b1001101 #
#78
12
01
0C
03
1@
16
0=
0B
1?
0A
0<
1>
08
00
0/
1.
0-
b1001 !
15
0:
1$
0,
b1001110 "
b1001110 #
#79
11
02
1C
13
0@
1=
1B
0?
1A
1<
0>
09
1;
18
10
1/
0.
1-
b10101 !
15
0:
1,
b1001111 "
b1001111 #
#80
03
01
07
12
0C
14
0=
06
08
0A
0;
00
0/
1.
0-
b1010 !
05
1'
0&
0%
0$
0,
b1010000 "
b1010000 #
#81
18
02
11
13
14
1:
0B
1D
1?
0<
19
10
1/
0.
1-
b10110 !
05
1,
b1010001 "
b1010001 #
#82
12
01
03
1B
0D
0?
1<
08
00
0/
1.
0-
b1011 !
15
0:
1$
0,
b1010010 "
b1010010 #
#83
02
11
13
0B
1D
1?
0<
09
1;
18
10
1/
0.
1-
b10111 !
15
0:
1,
b1010011 "
b1010011 #
#84
04
12
01
17
08
1B
0D
0?
1>
0;
00
0/
1.
0-
b1100 !
05
1%
0$
0,
b1010100 "
b1010100 #
#85
16
03
1@
1=
18
12
11
04
17
1:
0B
1D
1?
1<
0>
19
10
1/
0.
1-
b11000 !
05
1,
b1010101 "
b1010101 #
#86
06
12
0C
01
13
0@
0=
1B
0D
0?
0<
1>
08
00
0/
1.
0-
b1101 !
15
0:
1$
0,
b1010110 "
b1010110 #
#87
16
12
11
03
1@
1=
0B
1D
1?
1<
0>
09
1;
18
10
1/
0.
1-
b11001 !
15
0:
1,
b1010111 "
b1010111 #
#88
06
13
0@
07
14
0=
12
0C
01
08
1B
0D
0;
00
0/
1.
0-
b1110 !
05
1&
0%
0$
0,
b1011000 "
b1011000 #
#89
18
11
03
16
14
1:
0B
1D
0?
1A
0<
19
10
1/
0.
1-
b11010 !
05
1,
b1011001 "
b1011001 #
#90
01
13
06
1B
0D
1?
0A
1<
08
00
0/
1.
0-
b1111 !
15
0:
1$
0,
b1011010 "
b1011010 #
#91
11
03
16
0B
1D
0?
1A
0<
09
1;
18
10
1/
0.
1-
b11011 !
15
0:
1,
b1011011 "
b1011011 #
#92
02
1C
04
11
1@
16
17
08
1B
0D
1?
0A
1>
0;
00
0/
1.
0-
b10000 !
05
1%
0$
0,
b1011100 "
b1011100 #
#93
13
1=
18
12
0C
0@
04
17
1:
0B
1D
0?
1A
1<
0>
19
10
1/
0.
1-
b11100 !
05
1,
b1011101 "
b1011101 #
#94
02
1C
11
03
1@
16
0=
1B
0D
1?
0A
0<
1>
08
00
0/
1.
0-
b10001 !
15
0:
1$
0,
b1011110 "
b1011110 #
#95
12
0C
13
0@
1=
0B
1D
0?
1A
1<
0>
09
1;
18
10
1/
0.
1-
b11101 !
15
0:
1,
b1011111 "
b1011111 #
#96
03
07
02
14
0=
01
06
08
0D
0A
19
0;
00
0/
1.
b11 !
15
1(
0'
0&
0%
0$
0,
b1100000 "
b1100000 #
#97
04
12
13
1B
1?
0<
09
08
10
1/
0.
0-
b1101 !
15
0:
1,
b1100001 "
b1100001 #
#98
17
02
13
1=
18
0B
0?
1<
1;
00
0/
1.
1-
b100 !
05
1$
0,
b1100010 "
b1100010 #
#99
01
0C
14
06
07
12
13
0@
0=
1:
18
1B
1?
0<
19
0;
10
1/
0.
0-
b1110 !
05
1,
b1100011 "
b1100011 #
#100
02
04
17
0B
0?
08
1>
00
0/
1.
1-
b101 !
15
0:
1%
0$
0,
b1100100 "
b1100100 #
#101
01
07
0C
14
06
12
13
0@
0=
1B
1?
1<
0>
09
08
10
1/
0.
0-
b1111 !
15
0:
1,
b1100101 "
b1100101 #
#102
02
17
18
0B
0?
0<
1>
1;
00
0/
1.
1-
b110 !
05
1$
0,
b1100110 "
b1100110 #
#103
11
1C
16
03
1@
04
1=
02
17
1:
18
1B
1?
1<
0>
19
0;
10
1/
0.
0-
b10000 !
05
1,
b1100111 "
b1100111 #
#104
06
13
0@
01
07
02
0C
14
0=
0B
08
00
0/
1.
1-
b111 !
15
0:
1&
0%
0$
0,
b1101000 "
b1101000 #
#105
04
11
1C
03
16
1B
0?
1A
0<
09
08
10
1/
0.
0-
b10001 !
15
0:
1,
b1101001 "
b1101001 #
#106
12
1@
01
17
0C
03
16
1=
18
0B
1?
0A
1<
1;
00
0/
1.
1-
b1000 !
05
1$
0,
b1101010 "
b1101010 #
#107
14
11
07
02
1C
03
0@
0=
1:
18
1B
0?
1A
0<
19
0;
10
1/
0.
0-
b10010 !
05
1,
b1101011 "
b1101011 #
#108
12
01
0C
1@
16
04
17
0B
1?
0A
08
1>
00
0/
1.
1-
b1001 !
15
0:
1%
0$
0,
b1101100 "
b1101100 #
#109
07
14
11
02
1C
03
0@
0=
1B
0?
1A
1<
0>
09
08
10
1/
0.
0-
b10011 !
15
0:
1,
b1101101 "
b1101101 #
#110
12
01
0C
1@
16
17
18
0B
1?
0A
0<
1>
1;
00
0/
1.
1-
b1010 !
05
1$
0,
b1101110 "
b1101110 #
#111
13
04
1=
11
02
1C
0@
17
1:
18
1B
0?
1A
1<
0>
19
0;
10
1/
0.
0-
b10100 !
05
1,
b1101111 "
b1101111 #
#112
03
01
07
12
0C
14
0=
06
08
0A
00
0/
1.
1-
b1011 !
15
0:
1'
0&
0%
0$
0,
b1110000 "
b1110000 #
#113
04
02
11
13
0B
1D
1?
0<
09
08
10
1/
0.
0-
b10101 !
15
0:
1,
b1110001 "
b1110001 #
#114
17
12
01
13
1=
18
1B
0D
0?
1<
1;
00
0/
1.
1-
b1100 !
05
1$
0,
b1110010 "
b1110010 #
#115
14
06
07
02
11
13
0@
0=
1:
18
0B
1D
1?
0<
19
0;
10
1/
0.
0-
b10110 !
05
1,
b1110011 "
b1110011 #
#116
12
01
04
17
1B
0D
0?
08
1>
00
0/
1.
1-
b1101 !
15
0:
1%
0$
0,
b1110100 "
b1110100 #
#117
07
14
06
02
11
13
0@
0=
0B
1D
1?
1<
0>
09
08
10
1/
0.
0-
b10111 !
15
0:
1,
b1110101 "
b1110101 #
#118
12
01
17
18
1B
0D
0?
0<
1>
1;
00
0/
1.
1-
b1110 !
05
1$
0,
b1110110 "
b1110110 #
#119
16
03
1@
04
1=
12
11
17
1:
18
0B
1D
1?
1<
0>
19
0;
10
1/
0.
0-
b11000 !
05
1,
b1110111 "
b1110111 #
#120
06
13
0@
07
12
0C
01
14
0=
1B
0D
08
00
0/
1.
1-
b1111 !
15
0:
1&
0%
0$
0,
b1111000 "
b1111000 #
#121
04
11
03
16
0B
1D
0?
1A
0<
09
08
10
1/
0.
0-
b11001 !
15
0:
1,
b1111001 "
b1111001 #
#122
02
1C
1@
17
11
03
16
1=
18
1B
0D
1?
0A
1<
1;
00
0/
1.
1-
b10000 !
05
1$
0,
b1111010 "
b1111010 #
#123
14
07
12
0C
03
0@
0=
1:
18
0B
1D
0?
1A
0<
19
0;
10
1/
0.
0-
b11010 !
05
1,
b1111011 "
b1111011 #
#124
02
1C
11
1@
16
04
17
1B
0D
1?
0A
08
1>
00
0/
1.
1-
b10001 !
15
0:
1%
0$
0,
b1111100 "
b1111100 #
#125
07
14
12
0C
03
0@
0=
0B
1D
0?
1A
1<
0>
09
08
10
1/
0.
0-
b11011 !
15
0:
1,
b1111101 "
b1111101 #
#126
02
1C
11
1@
16
17
18
1B
0D
1?
0A
0<
1>
1;
00
0/
1.
1-
b10010 !
05
1$
0,
b1111110 "
b1111110 #
#127
13
04
1=
12
0C
0@
17
1:
18
0B
1D
0?
1A
1<
0>
19
0;
10
1/
0.
0-
b11100 !
05
1,
b1111111 "
b1111111 #
#128
02
07
01
13
0@
06
0=
08
0D
1?
0A
0<
09
00
b100 !
05
0:
1*
0)
0(
0'
0&
0%
0$
0,
b10000000 "
b10000000 #
#129
17
1=
18
12
13
04
1:
1B
0?
1<
19
10
0/
1.
1-
b1100 !
05
1,
b10000001 "
b10000001 #
#130
06
07
02
13
0@
0=
0B
1?
0<
08
00
1/
0.
0-
b101 !
15
0:
1$
0,
b10000010 "
b10000010 #
#131
17
12
13
1=
1B
0?
1<
09
1;
18
10
0/
1.
1-
b1101 !
15
0:
1,
b10000011 "
b10000011 #
#132
07
06
14
0=
02
13
0@
08
0B
1?
0;
00
1/
0.
0-
b110 !
05
1%
0$
0,
b10000100 "
b10000100 #
#133
18
12
14
17
1:
1B
0?
0<
1>
19
10
0/
1.
1-
b1110 !
05
1,
b10000101 "
b10000101 #
#134
02
07
0B
1?
1<
0>
08
00
1/
0.
0-
b111 !
15
0:
1$
0,
b10000110 "
b10000110 #
#135
12
17
1B
0?
0<
1>
09
1;
18
10
0/
1.
1-
b1111 !
15
0:
1,
b10000111 "
b10000111 #
#136
03
04
16
07
08
0B
1A
0>
0;
00
1/
0.
0-
b1000 !
05
1&
0%
0$
0,
b10001000 "
b10001000 #
#137
11
02
1C
1@
17
1=
18
03
16
04
1:
1B
1?
0A
1<
19
10
0/
1.
1-
b10000 !
05
1,
b10001001 "
b10001001 #
#138
01
07
12
0C
03
0@
0=
0B
0?
1A
0<
08
00
1/
0.
0-
b1001 !
15
0:
1$
0,
b10001010 "
b10001010 #
#139
11
02
1C
1@
17
03
16
1=
1B
1?
0A
1<
09
1;
18
10
0/
1.
1-
b10001 !
15
0:
1,
b10001011 "
b10001011 #
#140
07
01
14
0=
12
0C
03
0@
08
0B
0?
1A
0;
00
1/
0.
0-
b1010 !
05
1%
0$
0,
b10001100 "
b10001100 #
#141
11
02
1C
18
1@
16
14
17
1:
1B
1?
0A
0<
1>
19
10
0/
1.
1-
b10010 !
05
1,
b10001101 "
b10001101 #
#142
01
12
0C
0@
07
0B
0?
1A
1<
0>
08
00
1/
0.
0-
b1011 !
15
0:
1$
0,
b10001110 "
b10001110 #
#143
11
02
1C
1@
16
17
1B
1?
0A
0<
1>
09
1;
18
10
0/
1.
1-
b10011 !
15
0:
1,
b10001111 "
b10001111 #
#144
01
12
0C
06
13
0@
04
07
08
0>
0;
00
1/
0.
0-
b1100 !
05
1'
0&
0%
0$
0,
b10010000 "
b10010000 #
#145
17
1=
18
02
11
13
04
1:
0B
1D
0?
1<
19
10
0/
1.
1-
b10100 !
05
1,
b10010001 "
b10010001 #
#146
0C
06
07
12
01
13
0@
0=
1B
0D
1?
0<
08
00
1/
0.
0-
b1101 !
15
0:
1$
0,
b10010010 "
b10010010 #
#147
17
02
11
13
1=
0B
1D
0?
1<
09
1;
18
10
0/
1.
1-
b10101 !
15
0:
1,
b10010011 "
b10010011 #
#148
0C
07
06
14
0=
12
01
13
0@
08
1B
0D
1?
0;
00
1/
0.
0-
b1110 !
05
1%
0$
0,
b10010100 "
b10010100 #
#149
18
02
11
14
17
1:
0B
1D
0?
0<
1>
19
10
0/
1.
1-
b10110 !
05
1,
b10010101 "
b10010101 #
#150
12
01
07
1B
0D
1?
1<
0>
08
00
1/
0.
0-
b1111 !
15
0:
1$
0,
b10010110 "
b10010110 #
#151
02
11
17
0B
1D
0?
0<
1>
09
1;
18
10
0/
1.
1-
b10111 !
15
0:
1,
b10010111 "
b10010111 #
#152
03
04
1C
11
16
07
08
1B
0D
1A
0>
0;
00
1/
0.
0-
b10000 !
05
1&
0%
0$
0,
b10011000 "
b10011000 #
#153
12
1@
17
1=
18
0C
03
16
04
1:
0B
1D
1?
0A
1<
19
10
0/
1.
1-
b11000 !
05
1,
b10011001 "
b10011001 #
#154
07
02
1C
11
03
0@
0=
1B
0D
0?
1A
0<
08
00
1/
0.
0-
b10001 !
15
0:
1$
0,
b10011010 "
b10011010 #
#155
12
1@
17
0C
03
16
1=
0B
1D
1?
0A
1<
09
1;
18
10
0/
1.
1-
b11001 !
15
0:
1,
b10011011 "
b10011011 #
#156
07
14
0=
02
1C
11
03
0@
08
1B
0D
0?
1A
0;
00
1/
0.
0-
b10010 !
05
1%
0$
0,
b10011100 "
b10011100 #
#157
12
18
0C
1@
16
14
17
1:
0B
1D
1?
0A
0<
1>
19
10
0/
1.
1-
b11010 !
05
1,
b10011101 "
b10011101 #
#158
02
1C
11
0@
07
1B
0D
0?
1A
1<
0>
08
00
1/
0.
0-
b10011 !
15
0:
1$
0,
b10011110 "
b10011110 #
#159
12
0C
1@
16
17
0B
1D
1?
0A
0<
1>
09
1;
18
10
0/
1.
1-
b11011 !
15
0:
1,
b10011111 "
b10011111 #
#160
02
06
13
0@
04
01
07
08
0D
0>
19
0;
00
1/
0.
b101 !
15
1(
0'
0&
0%
0$
0,
b10100000 "
b10100000 #
#161
14
07
12
03
0=
1B
0?
1<
09
08
10
0/
1.
0-
b1011 !
15
0:
1,
b10100001 "
b10100001 #
#162
02
13
18
0B
1?
0<
1;
00
1/
0.
1-
b110 !
05
1$
0,
b10100010 "
b10100010 #
#163
17
04
1=
12
13
1:
18
1B
0?
1<
19
0;
10
0/
1.
0-
b1100 !
05
1,
b10100011 "
b10100011 #
#164
06
07
02
13
0@
14
0=
0B
1?
08
00
1/
0.
1-
b111 !
15
0:
1%
0$
0,
b10100100 "
b10100100 #
#165
04
12
17
1B
0?
0<
1>
09
08
10
0/
1.
0-
b1101 !
15
0:
1,
b10100101 "
b10100101 #
#166
16
03
1@
12
1=
17
18
0B
1?
1<
0>
1;
00
1/
0.
1-
b1000 !
05
1$
0,
b10100110 "
b10100110 #
#167
14
01
06
12
0C
13
0@
0=
1:
18
1B
0?
0<
1>
19
0;
10
0/
1.
0-
b1110 !
05
1,
b10100111 "
b10100111 #
#168
03
04
16
07
0B
08
1A
0>
00
1/
0.
1-
b1001 !
15
0:
1&
0%
0$
0,
b10101000 "
b10101000 #
#169
01
12
0C
14
0@
07
13
06
0=
1B
1?
0A
1<
09
08
10
0/
1.
0-
b1111 !
15
0:
1,
b10101001 "
b10101001 #
#170
03
16
18
0B
0?
1A
0<
1;
00
1/
0.
1-
b1010 !
05
1$
0,
b10101010 "
b10101010 #
#171
11
02
1C
1@
17
04
1=
03
16
1:
18
1B
1?
0A
1<
19
0;
10
0/
1.
0-
b10000 !
05
1,
b10101011 "
b10101011 #
#172
01
07
12
0C
03
0@
14
0=
0B
0?
1A
08
00
1/
0.
1-
b1011 !
15
0:
1%
0$
0,
b10101100 "
b10101100 #
#173
11
02
1C
04
1@
16
17
1B
1?
0A
0<
1>
09
08
10
0/
1.
0-
b10001 !
15
0:
1,
b10101101 "
b10101101 #
#174
13
01
12
0C
0@
1=
17
18
0B
0?
1A
1<
0>
1;
00
1/
0.
1-
b1100 !
05
1$
0,
b10101110 "
b10101110 #
